{
    "$schema": "http://json-schema.org/draft-04/schema#",
    "title": "Dummy types",

    "definitions": {
        "nested_object_type": {
            "type": "object",
            "properties": {
                "str_parameter": {
                    "type": "string"
                },
                "int_parameter": {
                    "type": "integer"
                },
                "boolean_type": {
                    "type": "boolean"
                }
            }
        },
        "generic_type": {
            "type": "object",
            "properties": {
                "str_parameter": {
                    "type": "string"
                },
                "int_parameter": {
                    "type": "integer"
                },
                "boolean_type": {
                    "type": "boolean"
                },
                "str_array_parameter": {
                    "type": "array",
                    "items": {
                        "type": "string"
                    }
                },

                "int_array_parameter": {
                    "type": "array",
                    "items": {
                        "type": "integer"
                    }
                },

                "boolean_array_parameter": {
                    "type": "array",
                    "items": {
                        "type": "boolean"
                    }
                },

                "object_parameter": {
                    "$ref": "#/definitions/nested_object_type"
                },

                "object_array_parameter": {
                    "type": "array",
                    "items": {
                        "$ref": "#/definitions/nested_object_type"
                    }
                }
            }
        }
    },

    "Error": {
        "type": "object",
        "required": ["code"],
        "properties": {
            "code": {
                "type": "string"
            },
            "message": {
                "type": "string"
            },
            "details": {
                "type": "object"
            }
        }
    },

    "UnaryUnaryRequest": {
        "$ref": "#/definitions/generic_type"
    },

    "UnaryUnaryReply": {
        "$ref": "#/definitions/generic_type"
    },

    "UnaryStreamRequest": {
        "$ref": "#/definitions/generic_type"
    },

    "UnaryStreamReply": {
        "$ref": "#/definitions/generic_type"
    },

    "StreamUnaryRequest": {
        "$ref": "#/definitions/generic_type"
    },

    "StreamUnaryReply": {
        "$ref": "#/definitions/generic_type"
    },

    "StreamStreamRequest": {
        "$ref": "#/definitions/generic_type"
    },

    "StreamStreamReply": {
        "$ref": "#/definitions/generic_type"
    }
}
